{"page": 2,
  "total_results": 6811,
  "total_pages": 341,
  "results": [
    {
      "vote_count": 12182,
      "id": 122,
      "video": false,
      "vote_average": 8.4,
      "title": "The Lord of the Rings: The Return of the King",
      "popularity": 35.272,
      "poster_path": "\/rCzpDGLbOoPwLjy3OAm5NUPOTrC.jpg",
      "original_language": "en",
      "original_title": "The Lord of the Rings: The Return of the King",
      "genre_ids": [
        12,
        14,
        28
      ],
      "backdrop_path": "\/8BPZO0Bf8TeAy8znF43z8soK3ys.jpg",
      "adult": false,
      "overview": "Aragorn is revealed as the heir to the ancient kings as he, Gandalf and the other members of the broken fellowship struggle to save Gondor from Sauron's forces. Meanwhile, Frodo and Sam bring the ring closer to the heart of Mordor, the dark lord's realm.",
      "release_date": "2003-12-01"
    },
    {
      "vote_count": 5113,
      "id": 769,
      "video": false,
      "vote_average": 8.4,
      "title": "GoodFellas",
      "popularity": 22.899,
      "poster_path": "\/hAPeXBdGDGmXRPj4OZZ0poH65Iu.jpg",
      "original_language": "en",
      "original_title": "GoodFellas",
      "genre_ids": [
        18,
        80
      ],
      "backdrop_path": "\/sw7mordbZxgITU877yTpZCud90M.jpg",
      "adult": false,
      "overview": "The true story of Henry Hill, a half-Irish, half-Sicilian Brooklyn kid who is adopted by neighbourhood gangsters at an early age and climbs the ranks of a Mafia family under the guidance of Jimmy Conway.",
      "release_date": "1990-09-12"
    },
    {
      "vote_count": 3400,
      "id": 389,
      "video": false,
      "vote_average": 8.4,
      "title": "12 Angry Men",
      "popularity": 16.755,
      "poster_path": "\/3W0v956XxSG5xgm7LB6qu8ExYJ2.jpg",
      "original_language": "en",
      "original_title": "12 Angry Men",
      "genre_ids": [
        18
      ],
      "backdrop_path": "\/lH2Ga8OzjU1XlxJ73shOlPx6cRw.jpg",
      "adult": false,
      "overview": "The defense and the prosecution have rested and the jury is filing into the jury room to decide if a young Spanish-American is guilty or innocent of murdering his father. What begins as an open and shut case soon becomes a mini-drama of each of the jurors' prejudices and preconceptions about the trial, the accused, and each other.",
      "release_date": "1957-03-25"
    },
    {
      "vote_count": 2016,
      "id": 311,
      "video": false,
      "vote_average": 8.4,
      "title": "Once Upon a Time in America",
      "popularity": 17.752,
      "poster_path": "\/fqP3Q7DWMFqW7mh11hWXbNwN9rz.jpg",
      "original_language": "en",
      "original_title": "Once Upon a Time in America",
      "genre_ids": [
        18,
        80
      ],
      "backdrop_path": "\/vnT6HzjLSDrAweHn9xWykb8Ii6T.jpg",
      "adult": false,
      "overview": "A former Prohibition-era Jewish gangster returns to the Lower East Side of Manhattan over thirty years later, where he once again must confront the ghosts and regrets of his old life.",
      "release_date": "1984-05-23"
    },
    {
      "vote_count": 1825,
      "id": 12477,
      "video": false,
      "vote_average": 8.4,
      "title": "Grave of the Fireflies",
      "popularity": 0.6,
      "poster_path": "\/4u1vptE8aXuzb5zauZTmikyectV.jpg",
      "original_language": "ja",
      "original_title": "火垂るの墓",
      "genre_ids": [
        16,
        18,
        10752
      ],
      "backdrop_path": "\/fCUIuG7y4YKC3hofZ8wsj7zhCpR.jpg",
      "adult": false,
      "overview": "In the final months of World War II, 14-year-old Seita and his sister Setsuko are orphaned when their mother is killed during an air raid in Kobe, Japan. After a falling out with their aunt, they move into an abandoned bomb shelter. With no surviving relatives and their emergency rations depleted, Seita and Setsuko struggle to survive.",
      "release_date": "1988-04-16"
    },
    {
      "vote_count": 5020,
      "id": 510,
      "video": false,
      "vote_average": 8.4,
      "title": "One Flew Over the Cuckoo's Nest",
      "popularity": 21.279,
      "poster_path": "\/2Sns5oMb356JNdBHgBETjIpRYy9.jpg",
      "original_language": "en",
      "original_title": "One Flew Over the Cuckoo's Nest",
      "genre_ids": [
        18
      ],
      "backdrop_path": "\/4E7YQcwui0PfNXguf4V2X8YocPC.jpg",
      "adult": false,
      "overview": "While serving time for insanity at a state mental hospital, implacable rabble-rouser, Randle Patrick McMurphy inspires his fellow patients to rebel against the authoritarian rule of head nurse, Mildred Ratched.",
      "release_date": "1975-11-18"
    },
    {
      "vote_count": 732,
      "id": 374430,
      "video": false,
      "vote_average": 8.4,
      "title": "Black Mirror: White Christmas",
      "popularity": 9.654,
      "poster_path": "\/he609rnU3tiwBjRklKNa4n2jQSd.jpg",
      "original_language": "en",
      "original_title": "Black Mirror: White Christmas",
      "genre_ids": [
        18,
        9648,
        878,
        53,
        10770
      ],
      "backdrop_path": "\/rMCew7St2vy9iV3QOPzx15sAkFJ.jpg",
      "adult": false,
      "overview": "In a mysterious and remote snowy outpost, Matt and Potter share a Christmas meal, swapping creepy tales of their earlier lives in the outside world, but are both men who they appear to be?",
      "release_date": "2014-12-16"
    },
    {
      "vote_count": 1559,
      "id": 11216,
      "video": false,
      "vote_average": 8.4,
      "title": "Cinema Paradiso",
      "popularity": 11.378,
      "poster_path": "\/hYzCLju3W74nLhhRXfPkwDi1Tun.jpg",
      "original_language": "it",
      "original_title": "Nuovo Cinema Paradiso",
      "genre_ids": [
        18,
        10749
      ],
      "backdrop_path": "\/tVi83ttAeyMJinYpy6xfgJSpzvP.jpg",
      "adult": false,
      "overview": "A filmmaker recalls his childhood, when he fell in love with the movies at his village's theater and formed a deep friendship with the theater's projectionist.",
      "release_date": "1988-11-17"
    },
    {
      "vote_count": 7202,
      "id": 244786,
      "video": false,
      "vote_average": 8.4,
      "title": "Whiplash",
      "popularity": 35.316,
      "poster_path": "\/lIv1QinFqz4dlp5U4lQ6HaiskOZ.jpg",
      "original_language": "en",
      "original_title": "Whiplash",
      "genre_ids": [
        18,
        10402
      ],
      "backdrop_path": "\/6bbZ6XyvgfjhQwbplnUh1LSj1ky.jpg",
      "adult": false,
      "overview": "Under the direction of a ruthless instructor, a talented young drummer begins to pursue perfection at any cost, even his humanity.",
      "release_date": "2014-10-10"
    },
    {
      "vote_count": 782,
      "id": 901,
      "video": false,
      "vote_average": 8.4,
      "title": "City Lights",
      "popularity": 8.26,
      "poster_path": "\/bXNvzjULc9jrOVhGfjcc64uKZmZ.jpg",
      "original_language": "en",
      "original_title": "City Lights",
      "genre_ids": [
        35,
        18,
        10749
      ],
      "backdrop_path": "\/vT6ux2rdyg2kexuLisO5Ygz7pHg.jpg",
      "adult": false,
      "overview": "City Lights is the first silent film that Charlie Chaplin directed after he established himself with sound accompanied films. The film is about a penniless man who falls in love with a flower girl.",
      "release_date": "1931-02-26"
    },
    {
      "vote_count": 220,
      "id": 14537,
      "video": false,
      "vote_average": 8.4,
      "title": "Harakiri",
      "popularity": 7.608,
      "poster_path": "\/5konZnIbcAxZjP616Cz5o9bKEfW.jpg",
      "original_language": "ja",
      "original_title": "切腹",
      "genre_ids": [
        28,
        18,
        36
      ],
      "backdrop_path": "\/pz9fxHyGiiNLZ21bccAtwrMAH7f.jpg",
      "adult": false,
      "overview": "Aging samurai Hanshiro Tsugumo arrives at the home of Kageyu Saito and asks to commit a ritual suicide on the property, which Saito thinks is a ploy to gain pity and a job. Saito tells Tsugumo of another samurai, Motome Chijiiwa, who threatened suicide as a stratagem, only to be forced to follow through on the task. When Tsugumo reveals that Chijiiwa was his son-in-law, the disclosure sets off a fierce conflict.",
      "release_date": "1962-09-15"
    },
    {
      "vote_count": 934,
      "id": 599,
      "video": false,
      "vote_average": 8.4,
      "title": "Sunset Boulevard",
      "popularity": 10.377,
      "poster_path": "\/oFwzvRgfxJc0FUr2mwYTi10dk3G.jpg",
      "original_language": "en",
      "original_title": "Sunset Boulevard",
      "genre_ids": [
        18
      ],
      "backdrop_path": "\/u44VbUuoP6OZYEBv2DRd7ShPTMp.jpg",
      "adult": false,
      "overview": "A hack screenwriter writes a screenplay for a former silent film star who has faded into Hollywood obscurity.",
      "release_date": "1950-08-10"
    },
    {
      "vote_count": 3679,
      "id": 429,
      "video": false,
      "vote_average": 8.4,
      "title": "The Good, the Bad and the Ugly",
      "popularity": 20.849,
      "poster_path": "\/wfPHdfofBD5PN96dV96a51B3Ja2.jpg",
      "original_language": "it",
      "original_title": "Il buono, il brutto, il cattivo",
      "genre_ids": [
        37
      ],
      "backdrop_path": "\/xGC2fY5KFmtuXnsuQwYQKFOLZFy.jpg",
      "adult": false,
      "overview": "While the Civil War rages between the Union and the Confederacy, three men – a quiet loner, a ruthless hit man and a Mexican bandit – comb the American Southwest in search of a strongbox containing $200,000 in stolen gold.",
      "release_date": "1966-12-23"
    },
    {
      "vote_count": 1325,
      "id": 914,
      "video": false,
      "vote_average": 8.4,
      "title": "The Great Dictator",
      "popularity": 10.913,
      "poster_path": "\/5Sukn9kDDoUQgoCZOR1YbbjxPoi.jpg",
      "original_language": "en",
      "original_title": "The Great Dictator",
      "genre_ids": [
        35
      ],
      "backdrop_path": "\/qkpsvso2neEr7v6YnyMoZtm6R9F.jpg",
      "adult": false,
      "overview": "Dictator Adenoid Hynkel tries to expand his empire while a poor Jewish barber tries to avoid persecution from Hynkel's regime.",
      "release_date": "1940-10-15"
    },
    {
      "vote_count": 476,
      "id": 313106,
      "video": false,
      "vote_average": 8.3,
      "title": "Doctor Who: The Day of the Doctor",
      "popularity": 7.726,
      "poster_path": "\/lQy2QVcacuH55k37K9Ox0gw3YpZ.jpg",
      "original_language": "en",
      "original_title": "Doctor Who: The Day of the Doctor",
      "genre_ids": [
        878,
        12
      ],
      "backdrop_path": "\/8bxjRFqFztBoXdVEx6q2u66a0s1.jpg",
      "adult": false,
      "overview": "In 2013, something terrible is awakening in London's National Gallery; in 1562, a murderous plot is afoot in Elizabethan England; and somewhere in space an ancient battle reaches its devastating conclusion. All of reality is at stake as the Doctor's own dangerous past comes back to haunt him.",
      "release_date": "2013-11-23"
    },
    {
      "vote_count": 5306,
      "id": 73,
      "video": false,
      "vote_average": 8.3,
      "title": "American History X",
      "popularity": 18.291,
      "poster_path": "\/fXepRAYOx1qC3wju7XdDGx60775.jpg",
      "original_language": "en",
      "original_title": "American History X",
      "genre_ids": [
        18
      ],
      "backdrop_path": "\/i9A0UMFg1hI2kLyCCwnmSbpT2cd.jpg",
      "adult": false,
      "overview": "Derek Vineyard is paroled after serving 3 years in prison for killing two thugs who tried to break into\/steal his truck. Through his brother, Danny Vineyard's narration, we learn that before going to prison, Derek was a skinhead and the leader of a violent white supremacist gang that committed acts of racial crime throughout L.A. and his actions greatly influenced Danny. Reformed and fresh out of prison, Derek severs contact with the gang and becomes determined to keep Danny from going down the same violent path as he did.",
      "release_date": "1998-10-30"
    },
    {
      "vote_count": 3569,
      "id": 4935,
      "video": false,
      "vote_average": 8.3,
      "title": "Howl's Moving Castle",
      "popularity": 14.471,
      "poster_path": "\/iMarB2ior30OAXjPa7QIdeyUfM1.jpg",
      "original_language": "ja",
      "original_title": "ハウルの動く城",
      "genre_ids": [
        14,
        16,
        12
      ],
      "backdrop_path": "\/cGyqa5PxiWSsG7NSw3ufCj0JW9k.jpg",
      "adult": false,
      "overview": "When Sophie, a shy young woman, is cursed with an old body by a spiteful witch, her only chance of breaking the spell lies with a self-indulgent yet insecure young wizard and his companions in his legged, walking home.",
      "release_date": "2004-11-19"
    },
    {
      "vote_count": 2993,
      "id": 598,
      "video": false,
      "vote_average": 8.3,
      "title": "City of God",
      "popularity": 14.51,
      "poster_path": "\/gCqnQaq8T4CfioP9uETLx9iMJF4.jpg",
      "original_language": "pt",
      "original_title": "Cidade de Deus",
      "genre_ids": [
        18,
        80
      ],
      "backdrop_path": "\/k4BAPrE5WkNLvpsPsiMfu8W4Zyi.jpg",
      "adult": false,
      "overview": "Cidade de Deus is a shantytown that started during the 1960s and became one of Rio de Janeiro’s most dangerous places in the beginning of the 1980s. To tell the story of this place, the movie describes the life of various characters, all seen by the point of view of the narrator, Buscapé. Buscapé was raised in a very violent environment. Despite the feeling that all odds were against him, he finds out that life can be seen with other eyes...",
      "release_date": "2002-02-05"
    },
    {
      "vote_count": 9117,
      "id": 1891,
      "video": false,
      "vote_average": 8.3,
      "title": "The Empire Strikes Back",
      "popularity": 19.947,
      "poster_path": "\/9SKDSFbaM6LuGqG1aPWN3wYGEyD.jpg",
      "original_language": "en",
      "original_title": "The Empire Strikes Back",
      "genre_ids": [
        12,
        28,
        878
      ],
      "backdrop_path": "\/amYkOxCwHiVTFKendcIW0rSrRlU.jpg",
      "adult": false,
      "overview": "The epic saga continues as Luke Skywalker, in hopes of defeating the evil Galactic Empire, learns the ways of the Jedi from aging master Yoda. But Darth Vader is more determined than ever to capture Luke. Meanwhile, rebel leader Princess Leia, cocky Han Solo, Chewbacca, and droids C-3PO and R2-D2 are thrown into various stages of capture, betrayal and despair.",
      "release_date": "1980-05-20"
    },
    {
      "vote_count": 188,
      "id": 11659,
      "video": false,
      "vote_average": 8.3,
      "title": "The Best of Youth",
      "popularity": 9.158,
      "poster_path": "\/oQ7CWJ4wIqcnhslkO38od8bq26L.jpg",
      "original_language": "it",
      "original_title": "La Meglio Gioventú",
      "genre_ids": [
        18
      ],
      "backdrop_path": "\/3VZH3Lw7mDjXjAYme3XYwujFMZX.jpg",
      "adult": false,
      "overview": "Spanning four decades, from the chaotic 1960s to the present, director Marco Tullio Giordana's passionate epic 'La Meglio Gioventu' follows two Italian brothers through some of the most tumultuous events of recent Italian history.",
      "release_date": "2003-05-19"
    }
  ]
}